simulation/qsim/MoraGras_VillenaJimenez_FSD_E2E3.msim.vcd
$comment
	File created using the following command:
		vcd file MoraGras_VillenaJimenez_FSD_E2E3.msim.vcd -direction
$end
$date
	Mon Dec 13 19:38:57 2021
$end
$version
	ModelSim Version 10.5b
$end
$timescale
	1ps
$end

$scope module sem_compara_vlg_vec_tst $end
$var reg 1 ! CLK $end
$var reg 1 " CLK_ENA $end
$var reg 1 # RSTn $end
$var reg 1 $ SEM_LOADn $end
$var reg 6 % SEM_P [5:0] $end
$var wire 1 & CUENTA [5] $end
$var wire 1 ' CUENTA [4] $end
$var wire 1 ( CUENTA [3] $end
$var wire 1 ) CUENTA [2] $end
$var wire 1 * CUENTA [1] $end
$var wire 1 + CUENTA [0] $end
$var wire 1 , Gcars $end
$var wire 1 - Gpedes $end
$var wire 1 . Rcars $end
$var wire 1 / Rpedes $end
$var wire 1 0 TC_CUENTA $end

$scope module i1 $end
$var wire 1 1 gnd $end
$var wire 1 2 vcc $end
$var wire 1 3 unknown $end
$var tri1 1 4 devclrn $end
$var tri1 1 5 devpor $end
$var tri1 1 6 devoe $end
$var wire 1 7 Rcars~output_o $end
$var wire 1 8 Gcars~output_o $end
$var wire 1 9 Rpedes~output_o $end
$var wire 1 : Gpedes~output_o $end
$var wire 1 ; CUENTA[0]~output_o $end
$var wire 1 < CUENTA[1]~output_o $end
$var wire 1 = CUENTA[2]~output_o $end
$var wire 1 > CUENTA[3]~output_o $end
$var wire 1 ? CUENTA[4]~output_o $end
$var wire 1 @ CUENTA[5]~output_o $end
$var wire 1 A TC_CUENTA~output_o $end
$var wire 1 B CLK~input_o $end
$var wire 1 C CLK~inputclkctrl_outclk $end
$var wire 1 D CONTADOR|SEMAFOROS|Q[0]~6_combout $end
$var wire 1 E SEM_P[0]~input_o $end
$var wire 1 F SEM_LOADn~input_o $end
$var wire 1 G RSTn~input_o $end
$var wire 1 H CONTADOR|SEMAFOROS|Q[2]~13 $end
$var wire 1 I CONTADOR|SEMAFOROS|Q[3]~14_combout $end
$var wire 1 J SEM_P[3]~input_o $end
$var wire 1 K CLK_ENA~input_o $end
$var wire 1 L CONTADOR|DIVISOR|Q~0_combout $end
$var wire 1 M CONTADOR|DIVISOR|Q[0]~1_combout $end
$var wire 1 N CONTADOR|DIVISOR|Q~2_combout $end
$var wire 1 O CONTADOR|SEMAFOROS|TC~0_combout $end
$var wire 1 P CONTADOR|SEMAFOROS|Q[0]~9_combout $end
$var wire 1 Q CONTADOR|SEMAFOROS|Q[3]~15 $end
$var wire 1 R CONTADOR|SEMAFOROS|Q[4]~16_combout $end
$var wire 1 S SEM_P[4]~input_o $end
$var wire 1 T CONTADOR|SEMAFOROS|Q[4]~17 $end
$var wire 1 U CONTADOR|SEMAFOROS|Q[5]~18_combout $end
$var wire 1 V SEM_P[5]~input_o $end
$var wire 1 W Equal1~2_combout $end
$var wire 1 X CONTADOR|SEMAFOROS|Q[0]~8_combout $end
$var wire 1 Y CONTADOR|SEMAFOROS|Q[0]~7 $end
$var wire 1 Z CONTADOR|SEMAFOROS|Q[1]~10_combout $end
$var wire 1 [ SEM_P[1]~input_o $end
$var wire 1 \ CONTADOR|SEMAFOROS|Q[1]~11 $end
$var wire 1 ] CONTADOR|SEMAFOROS|Q[2]~12_combout $end
$var wire 1 ^ SEM_P[2]~input_o $end
$var wire 1 _ Equal0~0_combout $end
$var wire 1 ` Equal1~0_combout $end
$var wire 1 a Equal1~1_combout $end
$var wire 1 b Rcars~5_combout $end
$var wire 1 c CONTADOR|SEMAFOROS|TC~1_combout $end
$var wire 1 d Equal0~1_combout $end
$var wire 1 e Rcars~4_combout $end
$var wire 1 f Rcars~reg0_q $end
$var wire 1 g Gcars~0_combout $end
$var wire 1 h Gcars~reg0_q $end
$var wire 1 i Rpedes~1_combout $end
$var wire 1 j Rpedes~0_combout $end
$var wire 1 k Rpedes~reg0_q $end
$var wire 1 l Gpedes~reg0_q $end
$var wire 1 m CONTADOR|DIVISOR|Q [1] $end
$var wire 1 n CONTADOR|DIVISOR|Q [0] $end
$var wire 1 o CONTADOR|SEMAFOROS|Q [5] $end
$var wire 1 p CONTADOR|SEMAFOROS|Q [4] $end
$var wire 1 q CONTADOR|SEMAFOROS|Q [3] $end
$var wire 1 r CONTADOR|SEMAFOROS|Q [2] $end
$var wire 1 s CONTADOR|SEMAFOROS|Q [1] $end
$var wire 1 t CONTADOR|SEMAFOROS|Q [0] $end
$upscope $end
$upscope $end
$enddefinitions $end
#0
$dumpvars
0!
1"
1#
1$
bx %
0+
0*
0)
0(
0'
0&
0,
0-
0.
0/
00
01
12
x3
14
15
16
07
08
09
0:
0;
0<
0=
0>
0?
0@
0A
0B
0C
1D
xE
1F
1G
0H
0I
xJ
1K
0L
1M
1N
0O
0P
1Q
0R
xS
0T
0U
xV
0W
0X
0Y
0Z
x[
1\
0]
x^
0_
0`
0a
0b
1c
0d
0e
0f
1g
0h
1i
0j
0k
0l
0n
0m
0t
0s
0r
0q
0p
0o
$end
#2500
1!
1B
1C
1n
0N
1L
#5000
0!
0B
0C
#7500
1!
1B
1C
0n
1m
1O
0L
1P
#10000
0!
0B
0C
#12500
1!
1B
1C
0m
1t
1;
0O
1Y
1+
1N
0D
0P
1Z
#15000
0!
0B
0C
#17500
1!
1B
1C
1n
0N
1L
#20000
0!
0B
0C
#22500
1!
1B
1C
0n
1m
1O
0L
1P
#25000
0!
0B
0C
#27500
1!
1B
1C
0m
1s
0t
0;
1<
0O
0\
0Y
1*
0+
1N
0Z
1D
0P
1\
1]
1Z
0]
#30000
0!
0B
0C
#32500
1!
1B
1C
1n
0N
1L
#35000
0!
0B
0C
#37500
1!
1B
1C
0n
1m
1O
0L
1P
#40000
0!
0B
0C
#42500
1!
1B
1C
0m
1t
1;
0O
1Y
1+
1N
0D
0P
0\
0Z
1]
#45000
0!
0B
0C
#47500
1!
1B
1C
1n
0N
1L
#50000
0!
0B
0C
#52500
1!
1B
1C
0n
1m
1O
0L
1P
#55000
0!
0B
0C
#57500
1!
1B
1C
0m
1r
0s
0t
0;
0<
1=
0O
1H
1\
0Y
1)
0*
0+
1N
0]
1Z
1D
0P
0H
1I
1]
0Z
0I
#60000
0!
0B
0C
#62500
1!
1B
1C
1n
0N
1L
#65000
0!
0B
0C
#67500
1!
1B
1C
0n
1m
1O
0L
1P
#70000
0!
0B
0C
#72500
1!
1B
1C
0m
1t
1;
0O
1Y
1+
1N
0D
0P
1Z
#75000
0!
0B
0C
#77500
1!
1B
1C
1n
0N
1L
#80000
0!
0B
0C
#82500
1!
1B
1C
0n
1m
1O
0L
1P
#85000
0!
0B
0C
#87500
1!
1B
1C
0m
1s
0t
0;
1<
0O
0\
0Y
1*
0+
1N
0Z
1D
0P
1H
1\
0]
1Z
0H
1I
1]
0I
#90000
0!
0B
0C
#92500
1!
1B
1C
1n
0N
1L
#95000
0!
0B
0C
#97500
1!
1B
1C
0n
1m
1O
0L
1P
#100000
0!
0B
0C
#102500
1!
1B
1C
0m
1t
1;
0O
1Y
1+
1N
0D
0P
0\
0Z
1H
0]
1I
#105000
0!
0B
0C
#107500
1!
1B
1C
1n
0N
1L
#110000
0!
0B
0C
#112500
1!
1B
1C
0n
1m
1O
0L
1P
#115000
0!
0B
0C
#117500
1!
1B
1C
0m
0r
0s
0t
1q
1>
0;
0<
0=
0O
0H
1\
0Y
0Q
0)
0*
0+
1(
1N
1]
1Z
1D
0I
0P
1Q
1I
0]
0Z
1R
0R
#120000
0!
0B
0C
#122500
1!
1B
1C
1n
0N
1L
#125000
0!
0B
0C
#127500
1!
1B
1C
0n
1m
1O
0L
1P
#130000
0!
0B
0C
#132500
1!
1B
1C
0m
1t
1;
0O
1Y
1+
1N
0D
0P
1Z
#135000
0!
0B
0C
#137500
1!
1B
1C
1n
0N
1L
#140000
0!
0B
0C
#142500
1!
1B
1C
0n
1m
1O
0L
1P
#145000
0!
0B
0C
#147500
1!
1B
1C
0m
1s
0t
0;
1<
0O
0\
0Y
1*
0+
1N
0Z
1D
0P
1\
1]
1Z
0]
#150000
0!
0B
0C
#152500
1!
1B
1C
1n
0N
1L
#155000
0!
0B
0C
#157500
1!
1B
1C
0n
1m
1O
0L
1P
#160000
0!
0B
0C
#162500
1!
1B
1C
0m
1t
1;
0O
1Y
1+
1N
0D
0P
0\
0Z
1]
#165000
0!
0B
0C
#167500
1!
1B
1C
1n
0N
1L
#170000
0!
0B
0C
#172500
1!
1B
1C
0n
1m
1O
0L
1P
#175000
0!
0B
0C
#177500
1!
1B
1C
0m
1r
0s
0t
0;
0<
1=
0O
1H
1\
0Y
1)
0*
0+
1N
0]
1Z
1D
0P
0Q
0H
0I
1]
0Z
1Q
1R
1I
0R
#180000
0!
0B
0C
#182500
1!
1B
1C
1n
0N
1L
#185000
0!
0B
0C
#187500
1!
1B
1C
0n
1m
1O
0L
1P
#190000
0!
0B
0C
#192500
1!
1B
1C
0m
1t
1;
0O
1Y
1+
1N
0D
0P
1Z
#195000
0!
0B
0C
#197500
1!
1B
1C
1n
0N
1L
#200000
0!
0B
0C
#202500
1!
1B
1C
0n
1m
1O
0L
1P
#205000
0!
0B
0C
#207500
1!
1B
1C
0m
1s
0t
0;
1<
0O
0\
0Y
1*
0+
1N
0Z
1D
0P
1H
1\
0]
1Z
0Q
0H
0I
1]
1Q
1R
1I
0R
#210000
0!
0B
0C
#212500
1!
1B
1C
1n
0N
1L
#215000
0!
0B
0C
#217500
1!
1B
1C
0n
1m
1O
0L
1P
#220000
0!
0B
0C
#222500
1!
1B
1C
0m
1t
1;
0O
1Y
1+
1N
0D
0P
0\
0Z
1H
0]
0Q
0I
1R
#225000
0!
0B
0C
#227500
1!
1B
1C
1n
0N
1L
#230000
0!
0B
0C
#232500
1!
1B
1C
0n
1m
1O
0L
1P
#235000
0!
0B
0C
#237500
1!
1B
1C
0m
0r
0s
0t
1p
0q
0>
1?
0;
0<
0=
0O
0H
1\
0Y
1T
1Q
0)
0*
0+
1'
0(
1N
1]
1Z
1D
0R
1I
0P
0T
0I
0]
0Z
1U
1R
0U
#240000
0!
0B
0C
#242500
1!
1B
1C
1n
0N
1L
#245000
0!
0B
0C
#247500
1!
1B
1C
0n
1m
1O
0L
1P
#250000
0!
0B
0C
#252500
1!
1B
1C
0m
1t
1;
0O
1Y
1+
1N
0D
0P
1Z
#255000
0!
0B
0C
#257500
1!
1B
1C
1n
0N
1L
#260000
0!
0B
0C
#262500
1!
1B
1C
0n
1m
1O
0L
1P
#265000
0!
0B
0C
#267500
1!
1B
1C
0m
1s
0t
0;
1<
0O
0\
0Y
1*
0+
1N
0Z
1D
0P
1\
1]
1Z
0]
#270000
0!
0B
0C
#272500
1!
1B
1C
1n
0N
1L
#275000
0!
0B
0C
#277500
1!
1B
1C
0n
1m
1O
0L
1P
#280000
0!
0B
0C
#282500
1!
1B
1C
0m
1t
1;
0O
1Y
1+
1N
0D
0P
0\
0Z
1]
#285000
0!
0B
0C
#287500
1!
1B
1C
1n
0N
1L
#290000
0!
0B
0C
#292500
1!
1B
1C
0n
1m
1O
0L
1P
#295000
0!
0B
0C
#297500
1!
1B
1C
0m
1r
0s
0t
0;
0<
1=
0O
1H
1\
0Y
1)
0*
0+
1N
0]
1Z
1D
0P
0H
1I
1]
0Z
0I
#300000
0!
0B
0C
#302500
1!
1B
1C
1n
0N
1L
#305000
0!
0B
0C
#307500
1!
1B
1C
0n
1m
1O
0L
1P
#310000
0!
0B
0C
#312500
1!
1B
1C
0m
1t
1;
0O
1Y
1+
1N
0D
0P
1Z
#315000
0!
0B
0C
#317500
1!
1B
1C
1n
0N
1L
#320000
0!
0B
0C
#322500
1!
1B
1C
0n
1m
1O
0L
1P
#325000
0!
0B
0C
#327500
1!
1B
1C
0m
1s
0t
0;
1<
0O
1_
0\
0Y
1*
0+
1N
0Z
1D
0P
1H
1\
0]
1Z
0H
1I
1]
0I
#330000
0!
0B
0C
#332500
1!
1B
1C
1n
0N
1L
#335000
0!
0B
0C
#337500
1!
1B
1C
0n
1m
1O
0L
1P
#340000
0!
0B
0C
#342500
1!
1B
1C
0m
1t
1;
0O
0_
1Y
1+
1N
0D
0P
0\
0Z
1H
0]
1I
#345000
0!
0B
0C
#347500
1!
1B
1C
1n
0N
1L
#350000
0!
0B
0C
#352500
1!
1B
1C
0n
1m
1O
0L
1P
#355000
0!
0B
0C
#357500
1!
1B
1C
0m
0r
0s
0t
1q
1>
0;
0<
0=
0O
0H
1\
0Y
0Q
0)
0*
0+
1(
1N
1]
1Z
1D
0I
0P
1Q
1T
1I
0]
0Z
0R
0T
1R
1U
0U
#360000
0!
0B
0C
#362500
1!
1B
1C
1n
0N
1L
#365000
0!
0B
0C
#367500
1!
1B
1C
0n
1m
1O
0L
1P
#370000
0!
0B
0C
#372500
1!
1B
1C
0m
1t
1;
0O
1Y
1+
1N
0D
0P
1Z
#375000
0!
0B
0C
#377500
1!
1B
1C
1n
0N
1L
#380000
0!
0B
0C
#382500
1!
1B
1C
0n
1m
1O
0L
1P
#385000
0!
0B
0C
#387500
1!
1B
1C
0m
1s
0t
0;
1<
0O
0\
0Y
1*
0+
1N
0Z
1D
0P
1\
1]
1Z
0]
#390000
0!
0B
0C
#392500
1!
1B
1C
1n
0N
1L
#395000
0!
0B
0C
#397500
1!
1B
1C
0n
1m
1O
0L
1P
#400000
0!
0B
0C
#402500
1!
1B
1C
0m
1t
1;
0O
1Y
1+
1N
0D
0P
0\
0Z
1]
#405000
0!
0B
0C
#407500
1!
1B
1C
1n
0N
1L
#410000
0!
0B
0C
#412500
1!
1B
1C
0n
1m
1O
0L
1P
#415000
0!
0B
0C
#417500
1!
1B
1C
0m
1r
0s
0t
0;
0<
1=
0O
1H
1\
0Y
1)
0*
0+
1N
0]
1Z
1D
0P
0Q
0H
0I
1]
0Z
1T
1Q
0R
1I
0T
1U
1R
0U
#420000
0!
0B
0C
#422500
1!
1B
1C
1n
0N
1L
#425000
0!
0B
0C
#427500
1!
1B
1C
0n
1m
1O
0L
1P
#430000
0!
0B
0C
#432500
1!
1B
1C
0m
1t
1;
0O
1Y
1+
1N
0D
0P
1Z
#435000
0!
0B
0C
#437500
1!
1B
1C
1n
0N
1L
#440000
0!
0B
0C
#442500
1!
1B
1C
0n
1m
1O
0L
1P
#445000
0!
0B
0C
#447500
1!
1B
1C
0m
1s
0t
0;
1<
0O
1_
0\
0Y
1*
0+
1N
0Z
1D
0P
1d
1H
1\
1b
0]
1Z
1e
0Q
0H
0I
1]
1T
1Q
0R
1I
0T
1U
1R
0U
#450000
0!
0B
0C
#452500
1!
1B
1C
1n
1h
1f
17
18
1,
1.
0N
1L
#455000
0!
0B
0C
#457500
1!
1B
1C
0n
1m
1O
0L
1P
#460000
0!
0B
0C
#462500
1!
1B
1C
0m
1t
1;
0O
0_
1Y
1+
1N
0D
0P
0d
0\
0b
0Z
0e
1H
0]
0Q
0I
1T
0R
1U
#465000
0!
0B
0C
#467500
1!
1B
1C
1n
0N
1L
#470000
0!
0B
0C
#472500
1!
1B
1C
0n
1m
1O
0L
1P
#475000
0!
0B
0C
#477500
1!
1B
1C
0m
0r
0s
0t
1o
0p
0q
0>
0?
1@
0;
0<
0=
0O
0H
1\
0Y
1W
0T
1Q
0)
0*
0+
1&
0'
0(
1N
1]
1Z
1D
0U
1R
1I
0P
0I
0]
0Z
1U
0R
#480000
0!
0B
0C
#482500
1!
1B
1C
1n
0N
1L
#485000
0!
0B
0C
#487500
1!
1B
1C
0n
1m
1O
0L
1P
#490000
0!
0B
0C
#492500
1!
1B
1C
0m
1t
1;
0O
1Y
1+
1N
0D
0P
1Z
#495000
0!
0B
0C
#497500
1!
1B
1C
1n
0N
1L
#500000
0!
0B
0C
#502500
1!
1B
1C
0n
1m
1O
0L
1P
#505000
0!
0B
0C
#507500
1!
1B
1C
0m
1s
0t
0;
1<
0O
0\
0Y
1*
0+
1N
0Z
1D
0P
1\
1]
1Z
0]
#510000
0!
0B
0C
#512500
1!
1B
1C
1n
0N
1L
#515000
0!
0B
0C
#517500
1!
1B
1C
0n
1m
1O
0L
1P
#520000
0!
0B
0C
#522500
1!
1B
1C
0m
1t
1;
0O
1`
1Y
1+
1N
0D
0P
0\
1a
0Z
1j
1e
1]
0i
0g
1b
#525000
0!
0B
0C
#527500
1!
1B
1C
1n
1l
0h
08
1:
1-
0,
0N
1L
#530000
0!
0B
0C
#532500
1!
1B
1C
0n
1m
1O
0L
1P
#535000
0!
0B
0C
#537500
1!
1B
1C
0m
1r
0s
0t
0;
0<
1=
0O
1H
0`
1\
0Y
1)
0*
0+
1N
0a
0]
1Z
1D
0P
0H
0j
0e
1I
1]
0Z
1i
1g
0b
0I
#540000
0!
0B
0C
#542500
1!
1B
1C
1n
0N
1L
#545000
0!
0B
0C
#547500
1!
1B
1C
0n
1m
1O
0L
1P
#550000
0!
0B
0C
#552500
1!
1B
1C
0m
1t
1;
0O
1Y
1+
1N
0D
0P
1Z
#555000
0!
0B
0C
#557500
1!
1B
1C
1n
0N
1L
#560000
0!
0B
0C
#562500
1!
1B
1C
0n
1m
1O
0L
1P
#565000
0!
0B
0C
#567500
1!
1B
1C
0m
1s
0t
0;
1<
0O
0\
0Y
1*
0+
1N
0Z
1D
0P
1H
1\
0]
1Z
0H
1I
1]
0I
#570000
0!
0B
0C
#572500
1!
1B
1C
1n
0N
1L
#575000
0!
0B
0C
#577500
1!
1B
1C
0n
1m
1O
0L
1P
#580000
0!
0B
0C
#582500
1!
1B
1C
0m
1t
1;
0O
1`
1Y
1+
1N
0D
0P
0\
0Z
1H
0]
1I
#585000
0!
0B
0C
#587500
1!
1B
1C
1n
0N
1L
#590000
0!
0B
0C
#592500
1!
1B
1C
0n
1m
1O
0L
1P
#595000
0!
0B
0C
#597500
1!
1B
1C
0m
0r
0s
0t
1q
1>
0;
0<
0=
0O
0H
0`
1\
0Y
0W
0Q
0)
0*
0+
1(
1N
1a
1]
1Z
1D
0I
0P
1Q
1j
1e
1I
0a
0]
0Z
1R
0i
0g
1b
0j
0e
0R
1i
1g
0b
#600000
0!
0B
0C
#602500
1!
1B
1C
1n
0N
1L
#605000
0!
0B
0C
#607500
1!
1B
1C
0n
1m
1O
0L
1P
#610000
0!
0B
0C
#612500
1!
1B
1C
0m
1t
1;
0O
1Y
1+
1N
0D
0P
1Z
#615000
0!
0B
0C
#617500
1!
1B
1C
1n
0N
1L
#620000
0!
0B
0C
#622500
1!
1B
1C
0n
1m
1O
0L
1P
#625000
0!
0B
0C
#627500
1!
1B
1C
0m
1s
0t
0;
1<
0O
0\
0Y
1*
0+
1N
0Z
1D
0P
1\
1]
1Z
0]
#630000
0!
0B
0C
#632500
1!
1B
1C
1n
0N
1L
#635000
0!
0B
0C
#637500
1!
1B
1C
0n
1m
1O
0L
1P
#640000
0!
0B
0C
#642500
1!
1B
1C
0m
1t
1;
0O
1Y
1+
1N
0D
0P
0\
0Z
1]
#645000
0!
0B
0C
#647500
1!
1B
1C
1n
0N
1L
#650000
0!
0B
0C
#652500
1!
1B
1C
0n
1m
1O
0L
1P
#655000
0!
0B
0C
#657500
1!
1B
1C
0m
1r
0s
0t
0;
0<
1=
0O
1H
1\
0Y
1)
0*
0+
1N
0]
1Z
1D
0P
0Q
0H
0I
1]
0Z
1Q
1R
1I
0R
#660000
0!
0B
0C
#662500
1!
1B
1C
1n
0N
1L
#665000
0!
0B
0C
#667500
1!
1B
1C
0n
1m
1O
0L
1P
#670000
0!
0B
0C
#672500
1!
1B
1C
0m
1t
1;
0O
1Y
1+
1N
0D
0P
1Z
#675000
0!
0B
0C
#677500
1!
1B
1C
1n
0N
1L
#680000
0!
0B
0C
#682500
1!
1B
1C
0n
1m
1O
0L
1P
#685000
0!
0B
0C
#687500
1!
1B
1C
0m
1s
0t
0;
1<
0O
0\
0Y
1*
0+
1N
0Z
1D
0P
1H
1\
0]
1Z
0Q
0H
0I
1]
1Q
1R
1I
0R
#690000
0!
0B
0C
#692500
1!
1B
1C
1n
0N
1L
#695000
0!
0B
0C
#697500
1!
1B
1C
0n
1m
1O
0L
1P
#700000
0!
0B
0C
#702500
1!
1B
1C
0m
1t
1;
0O
1Y
1+
1N
0D
0P
0\
0Z
1H
0]
0Q
0I
1R
#705000
0!
0B
0C
#707500
1!
1B
1C
1n
0N
1L
#710000
0!
0B
0C
#712500
1!
1B
1C
0n
1m
1O
0L
1P
#715000
0!
0B
0C
#717500
1!
1B
1C
0m
0r
0s
0t
1p
0q
0>
1?
0;
0<
0=
0O
0H
1\
0Y
1T
1W
1Q
0)
0*
0+
1'
0(
1N
1]
1Z
1D
0R
1I
0P
0T
0I
0]
0Z
0U
1R
1U
#720000
0!
0B
0C
#722500
1!
1B
1C
1n
0N
1L
#725000
0!
0B
0C
#727500
1!
1B
1C
0n
1m
1O
0L
1P
#730000
0!
0B
0C
#732500
1!
1B
1C
0m
1t
1;
0O
1Y
1+
1N
0D
0P
1Z
#735000
0!
0B
0C
#737500
1!
1B
1C
1n
0N
1L
#740000
0!
0B
0C
#742500
1!
1B
1C
0n
1m
1O
0L
1P
#745000
0!
0B
0C
#747500
1!
1B
1C
0m
1s
0t
0;
1<
0O
0\
0Y
1*
0+
1N
0Z
1D
0P
1\
1]
1Z
0]
#750000
0!
0B
0C
#752500
1!
1B
1C
1n
0N
1L
#755000
0!
0B
0C
#757500
1!
1B
1C
0n
1m
1O
0L
1P
#760000
0!
0B
0C
#762500
1!
1B
1C
0m
1t
1;
0O
1`
1Y
1+
1N
0D
0P
0\
0Z
1]
#765000
0!
0B
0C
#767500
1!
1B
1C
1n
0N
1L
#770000
0!
0B
0C
#772500
1!
1B
1C
0n
1m
1O
0L
1P
#775000
0!
0B
0C
#777500
1!
1B
1C
0m
1r
0s
0t
0;
0<
1=
0O
1H
0`
1\
0Y
1)
0*
0+
1N
0]
1Z
1D
0P
0H
1I
1]
0Z
0I
#780000
0!
0B
0C
#782500
1!
1B
1C
1n
0N
1L
#785000
0!
0B
0C
#787500
1!
1B
1C
0n
1m
1O
0L
1P
#790000
0!
0B
0C
#792500
1!
1B
1C
0m
1t
1;
0O
1Y
1+
1N
0D
0P
1Z
#795000
0!
0B
0C
#797500
1!
1B
1C
1n
0N
1L
#800000
0!
0B
0C
#802500
1!
1B
1C
0n
1m
1O
0L
1P
#805000
0!
0B
0C
#807500
1!
1B
1C
0m
1s
0t
0;
1<
0O
1_
0\
0Y
1*
0+
1N
0Z
1D
0P
1X
1H
1\
0]
1Z
0H
1I
1]
0I
#810000
0!
0B
0C
#812500
1!
1B
1C
1n
0N
1L
#815000
0!
0B
0C
#817500
1!
1B
1C
0n
1m
1O
0L
0c
1P
1A
1j
1e
10
#820000
0!
0B
0C
#822500
1!
1B
1C
0m
0l
1k
1h
0f
0r
0s
0o
0p
0?
0@
0<
0=
07
18
19
0:
0O
0_
1c
0W
0-
1/
1,
0.
0)
0*
0&
0'
1N
0]
0Z
0U
0R
0A
0P
0X
0j
0e
00
#825000
0!
0B
0C
#827500
1!
1B
1C
1n
0N
1L
#830000
0!
0B
0C
#832500
1!
1B
1C
0n
1m
1O
0L
1P
#835000
0!
0B
0C
#837500
1!
1B
1C
0m
1t
1;
0O
1Y
1+
1N
0D
0P
1Z
#840000
0!
0B
0C
#842500
1!
1B
1C
1n
0N
1L
#845000
0!
0B
0C
#847500
1!
1B
1C
0n
1m
1O
0L
1P
#850000
0!
0B
0C
#852500
1!
1B
1C
0m
1s
0t
0;
1<
0O
0\
0Y
1*
0+
1N
0Z
1D
0P
1\
1]
1Z
0]
#855000
0!
0B
0C
#857500
1!
1B
1C
1n
0N
1L
#860000
0!
0B
0C
#862500
1!
1B
1C
0n
1m
1O
0L
1P
#865000
0!
0B
0C
#867500
1!
1B
1C
0m
1t
1;
0O
1Y
1+
1N
0D
0P
0\
0Z
1]
#870000
0!
0B
0C
#872500
1!
1B
1C
1n
0N
1L
#875000
0!
0B
0C
#877500
1!
1B
1C
0n
1m
1O
0L
1P
#880000
0!
0B
0C
#882500
1!
1B
1C
0m
1r
0s
0t
0;
0<
1=
0O
1H
1\
0Y
1)
0*
0+
1N
0]
1Z
1D
0P
0H
1I
1]
0Z
0I
#885000
0!
0B
0C
#887500
1!
1B
1C
1n
0N
1L
#890000
0!
0B
0C
#892500
1!
1B
1C
0n
1m
1O
0L
1P
#895000
0!
0B
0C
#897500
1!
1B
1C
0m
1t
1;
0O
1Y
1+
1N
0D
0P
1Z
#900000
0!
0B
0C
#902500
1!
1B
1C
1n
0N
1L
#905000
0!
0B
0C
#907500
1!
1B
1C
0n
1m
1O
0L
1P
#910000
0!
0B
0C
#912500
1!
1B
1C
0m
1s
0t
0;
1<
0O
0\
0Y
1*
0+
1N
0Z
1D
0P
1H
1\
0]
1Z
0H
1I
1]
0I
#915000
0!
0B
0C
#917500
1!
1B
1C
1n
0N
1L
#920000
0!
0B
0C
#922500
1!
1B
1C
0n
1m
1O
0L
1P
#925000
0!
0B
0C
#927500
1!
1B
1C
0m
1t
1;
0O
1Y
1+
1N
0D
0P
0\
0Z
1H
0]
1I
#930000
0!
0B
0C
#932500
1!
1B
1C
1n
0N
1L
#935000
0!
0B
0C
#937500
1!
1B
1C
0n
1m
1O
0L
1P
#940000
0!
0B
0C
#942500
1!
1B
1C
0m
0r
0s
0t
1q
1>
0;
0<
0=
0O
0H
1\
0Y
0Q
0)
0*
0+
1(
1N
1]
1Z
1D
0I
0P
1Q
1I
0]
0Z
1R
0R
#945000
0!
0B
0C
#947500
1!
1B
1C
1n
0N
1L
#950000
0!
0B
0C
#952500
1!
1B
1C
0n
1m
1O
0L
1P
#955000
0!
0B
0C
#957500
1!
1B
1C
0m
1t
1;
0O
1Y
1+
1N
0D
0P
1Z
#960000
0!
0B
0C
#962500
1!
1B
1C
1n
0N
1L
#965000
0!
0B
0C
#967500
1!
1B
1C
0n
1m
1O
0L
1P
#970000
0!
0B
0C
#972500
1!
1B
1C
0m
1s
0t
0;
1<
0O
0\
0Y
1*
0+
1N
0Z
1D
0P
1\
1]
1Z
0]
#975000
0!
0B
0C
#977500
1!
1B
1C
1n
0N
1L
#980000
0!
0B
0C
#982500
1!
1B
1C
0n
1m
1O
0L
1P
#985000
0!
0B
0C
#987500
1!
1B
1C
0m
1t
1;
0O
1Y
1+
1N
0D
0P
0\
0Z
1]
#990000
0!
0B
0C
#992500
1!
1B
1C
1n
0N
1L
#995000
0!
0B
0C
#997500
1!
1B
1C
0n
1m
1O
0L
1P
